^C:\USERS\ROBIN\DESKTOP\ENGINE\UDEMYCOURSE\SECTION_02\BULLCOWGAME\DEBUG\FBULLCOWGAME.OBJ|C:\USERS\ROBIN\DESKTOP\ENGINE\UDEMYCOURSE\SECTION_02\BULLCOWGAME\DEBUG\MAIN.OBJ|C:\USERS\ROBIN\DESKTOP\ENGINE\UDEMYCOURSE\SECTION_02\BULLCOWGAME\DEBUG\STDAFX.OBJ
C:\USERS\ROBIN\DESKTOP\ENGINE\UDEMYCOURSE\SECTION_02\DEBUG\BULLCOWGAME.ILK
C:\USERS\ROBIN\DESKTOP\ENGINE\UDEMYCOURSE\SECTION_02\DEBUG\BULLCOWGAME.EXE
C:\USERS\ROBIN\DESKTOP\ENGINE\UDEMYCOURSE\SECTION_02\DEBUG\BULLCOWGAME.PDB
